00000000 ROMBASEADDR
0000067c next_task_ctx
00000680 current_task_ctx
00001934 task_dispatch_hook
0000193c pre_isr_hook
00001940 post_isr_hook
00001bf4 gui_main_struct
00001f54 sounddev
00002b18 dm_names
00002b24 task_max
00003624 gui_timer_struct
0000a39c mvr_config
00016fb8 additional_version
0001a904 gui_task_list
00022938 cf_device
00029a60 bmp_vram_info
00029a9c LCD_Palette
1f8005f8 copy_and_restart
1f80093c magic_is_off
1f800960 hold_your_horses
1f800988 get_assert_msg
1f800994 ml_assert_handler
1f800a08 ml_crash_message
1f800cb8 get_ml_card
1f800cc8 get_shooting_card
1f800cd8 get_card
1f800d1c get_free_space_32k
1f800d44 get_dcim_dir
1f800d8c FIO_OpenFile
1f800dc0 FIO_GetFileSize
1f800df4 FIO_RemoveFile
1f800e1c FIO_FindFirstEx
1f800e50 FIO_CreateDirectory
1f800e78 FIO_GetFileSize_direct
1f800ef0 FIO_CreateFileOrAppend
1f801008 FIO_CopyFile
1f80104c FIO_MoveFile
1f8010a4 FIO_RenameFile
1f8010a8 is_file
1f8010cc is_dir
1f801230 FIO_CreateFile
1f801300 get_numbered_file_name
1f801374 dump_seg
1f8013a8 dump_big_seg
1f801554 GetFreeMemForAllocateMemory
1f8019a4 format_memory_size
1f802a78 __mem_malloc
1f802e94 __mem_free
1f803084 shoot_malloc_suite
1f8030bc shoot_free_suite
1f8030ec shoot_malloc_suite_contig
1f803124 mem_menu_init
1f803140 edmac_get_base
1f803178 edmac_get_state
1f803188 edmac_get_flags
1f80319c edmac_get_address
1f8031b0 edmac_get_length
1f8031c4 edmac_get_connection
1f8034c0 menu_open_submenu
1f804748 menu_redraw_flood
1f806e58 menu_set_dirty
1f806e6c menu_enable_lv_transparent_mode
1f806e98 menu_disable_lv_transparent_mode
1f806eac menu_get_root
1f806ebc menu_numeric_toggle
1f806f44 menu_numeric_toggle_time
1f8071e4 menu_add
1f8071ec customize_menu_init
1f807268 menu_add_base
1f807530 menu_remove
1f8076e4 menu_redraw
1f807d64 handle_ml_menu_keyrepeat
1f807dd4 keyrepeat_ack
1f807df4 menu_init
1f807f2c gui_menu_shown
1f807f3c is_submenu_or_edit_mode_active
1f807f78 is_menu_help_active
1f807fa0 menu_active_but_hidden
1f807fc8 menu_active_and_not_hidden
1f808010 gui_stop_menu
1f808034 gui_open_menu
1f808058 is_menu_entry_selected
1f8080c4 is_menu_selected
1f8080f4 is_menu_active
1f8087f8 select_menu
1f80886c select_menu_by_name
1f809b6c menu_benchmark
1f809c80 handle_ml_menu_erase
1f809ce4 menu_close_submenu
1f809d0c menu_toggle_submenu
1f80a1c4 handle_ml_menu_keys
1f80aa50 handle_quick_access_menu_items
1f80aac4 config_menu_save_flags
1f80abf4 menu_get_value_from_script
1f80ac48 menu_get_str_value_from_script
1f80acac menu_set_str_value_from_script
1f80af0c menu_set_value_from_script
1f80afc4 menu_request_image_backend
1f80b044 menu_advanced_toggle
1f80b094 menu_advanced_update
1f80b1c0 run_in_separate_task
1f80b22c mem_test_edmac_copy_rectangle
1f80cf80 info_led_on
1f80cf84 info_led_off
1f80cf88 info_led_blink
1f80d754 request_crash_log
1f80d764 request_core_dump
1f80d780 debug_init
1f80d784 debug_init_stuff
1f80d788 handle_keep_ml_after_format_toggle
1f80d7f0 debug_menu_init
1f80d838 spy_event
1f80d914 get_halfshutter_pressed
1f80d940 get_zoom_out_pressed
1f80d950 handle_buttons_being_held
1f80d9f4 handle_tricky_canon_calls
1f80dafc display_on
1f80db04 display_off
1f80e778 EngDrvOut
1f813820 rand_fill
1f8138dc rand_seed
1f813960 rand
1f813988 srand
1f81398c strdup
1f8139bc time
1f8139c4 clock
1f8139c8 calloc
1f813a00 realloc
1f813a44 strlcat
1f813a94 strcat
1f813ab0 util_atomic_inc
1f813ae4 util_atomic_dec
1f813b18 bin_search
1f813b90 powi
1f813bbc log2i
1f813bd4 log10i
1f813bf8 log_length
1f813e64 disable_electronic_level
1f813e90 show_electronic_level
1f813f64 get_htp
1f813f70 set_htp
1f813f80 get_alo
1f813f90 set_alo
1f813fc0 get_mlu
1f813fcc set_mlu
1f813fdc cfn_get_af_button_assignment
1f813fe4 cfn_set_af_button
1f814204 get_prop_picstyle_from_index
1f8142ac get_prop_picstyle_index
1f81449c GetNumberOfChunks
1f8144e4 GetSizeOfMemorySuite
1f81452c GetSizeOfMemoryChunk
1f8145b4 exmem_save_buffer
1f814638 exmem_clear
1f814a88 BMP_VRAM_START
1f814b1c bmp_vram_real
1f814b3c bmp_vram_idle
1f814b4c bmp_draw_to_idle
1f814b5c bmp_vram
1f814b78 bmp_idle_copy
1f814c74 bmp_putpixel_fast
1f814c84 bmp_puts
1f814d30 bmp_printf
1f814d84 big_bmp_printf
1f814e04 bmp_string_width
1f814e24 bmp_strlen_clipped
1f814e44 bmp_fill
1f814f04 read_file
1f814f48 bmp_load_ram
1f815274 bmp_load
1f815328 read_entire_file
1f8153b8 clrscr
1f8153fc bmp_getpixel
1f815474 bmp_putpixel
1f8154dc bmp_draw_rect
1f81557c bmp_draw_rect_chamfer
1f815728 bmp_draw_request_stop
1f81573c bmp_draw_scaled_ex
1f815d24 bfnt_draw_char
1f815e74 bfnt_char_get_width
1f815ebc bmp_flip
1f815ff4 bmp_flip_ex
1f816188 bmp_is_on
1f8161a0 bmp_on
1f8161cc bmp_off
1f816224 bmp_mute_flag_reset
1f81623c bmp_zoom
1f816830 font_by_name
1f816b38 rbf_str_width
1f816b84 rbf_str_clipped_width
1f816bb8 rbf_strlen_clipped
1f816bf4 rbf_draw_string
1f8178ec config_save_file
1f817a70 config_flag_file_setting_load
1f817a8c config_flag_file_setting_save
1f817b18 config_parse_file
1f817c10 get_config_var
1f817c30 set_config_var
1f817c48 set_config_var_ptr
1f817c88 config_var_was_changed
1f817cb0 config_var_restore_default
1f817cd0 module_config_load
1f817d2c module_config_save
1f817e54 get_config_dir
1f817e60 get_config_preset_name
1f817e70 handle_select_config_file_by_key_at_startup
1f817ed4 config_load
1f818284 config_save
1f818300 config_save_at_shutdown
1f818350 my_fprintf
1f8183c0 streq
1f818404 toupper
1f818414 tolower
1f818424 __errno
1f818430 islower
1f818444 isupper
1f818458 isalpha
1f818470 isdigit
1f818484 isxdigit
1f8184a4 isalnum
1f8184d4 ispunct
1f8184f4 isgraph
1f818524 isspace
1f818544 iscntrl
1f818564 snprintf
1f818590 memset64
1f8185e0 memcpy64
1f818640 bitrate_bulk_cb
1f818ba0 hibr_should_record_wav
1f818ba8 bitrate_read_mvr_config
1f818c18 bitrate_write_mvr_config
1f818e04 bitrate_mvr_log
1f818eac time_indicator_show
1f819104 is_mvr_buffer_almost_full
1f8191ec show_mvr_buffer_status
1f819308 movie_indicators_show
1f819fb4 get_expsim
1f81a14c set_expsim
1f81a1a4 set_backlight_level
1f81a1d4 afframe_set_dirty
1f81a1e8 afframe_clr_dirty
1f81a1fc clear_lv_afframe
1f81a488 clear_lv_afframe_if_dirty
1f81a4f4 is_pure_play_photo_mode
1f81a614 is_pure_play_movie_mode
1f81a660 is_pure_play_photo_or_movie_mode
1f81a688 is_play_or_qr_mode
1f81a6c4 handle_set_wheel_play
1f81a8f4 play_lv_key_step
1f81b8c4 handle_lv_play
1f81b9c0 handle_fast_zoom_box
1f81bac0 handle_fast_zoom_in_play_mode
1f81bbf0 handle_push_wb
1f81bc14 handle_arrow_keys
1f81bfec arrow_keys_shortcuts_active
1f81c030 display_shortcut_key_hints_lv
1f81c644 handle_upside_down
1f81c750 alter_bitmap_palette_entry
1f81c838 anamorphic_squeeze_bmp_y
1f81c93c defish_draw_play
1f81cd64 display_filter_get_buffers
1f81cfa0 display_filter_enabled
1f81d044 display_broken_for_mz
1f81d054 display_filter_lv_vsync
1f81d108 display_filter_step
1f81d8d4 lens_set_flash_ae
1f81dae0 lens_set_ae
1f81e4d8 lens_format_dist
1f81e678 should_draw_bottom_bar
1f81e6e0 raw2shutter_ms
1f81e734 shutter_ms_to_raw
1f81e780 shutterf_to_raw
1f81e7cc round_noflicker
1f81e818 raw2shutterf
1f81e858 get_shootmode_name
1f81ea0c get_shootmode_name_short
1f81ebfc get_ml_bottombar_pos
1f81ecdc draw_ml_bottombar
1f81ecfc lens_format_shutter_reciprocal
1f81ee90 lens_format_shutter
1f81ef78 get_ml_topbar_pos
1f81f040 free_space_show_photomode
1f81f0bc draw_ml_topbar
1f81f0dc update_lens_display
1f81f100 lens_focus
1f81f2c0 mlu_lock_mirror_if_needed
1f81f3e4 raw2index_iso
1f81f418 raw2iso
1f81f704 val2raw_iso
1f81f740 raw2index_shutter
1f81f774 val2raw_shutter
1f81f7b4 raw2index_aperture
1f81f7e8 val2raw_aperture
1f81f82c lens_set_custom_wb_gains
1f81f8d0 lens_set_kelvin
1f81f9e0 lens_set_kelvin_value_only
1f81fa88 split_iso
1f81fae0 iso_components_update
1f81fdf4 iso_auto_restore_hack
1f820068 job_state_ready_to_take_pic
1f8200a0 lens_wait_readytotakepic
1f8201ac assign_af_button_to_halfshutter
1f82020c assign_af_button_to_star_button
1f82026c lens_setup_af
1f8202d8 restore_af_button_assignment
1f820340 restore_af_button_assignment_at_shutdown
1f82037c lens_cleanup_af
1f8206dc crop_factor_menu_init
1f8206f4 lens_get_contrast
1f820720 lens_get_sharpness
1f82074c lens_get_saturation
1f820778 lens_get_color_tone
1f820c2c lens_get_from_other_picstyle_contrast
1f820c44 lens_get_from_other_picstyle_sharpness
1f820c5c lens_get_from_other_picstyle_saturation
1f820c74 lens_get_from_other_picstyle_color_tone
1f820c8c lens_set_contrast
1f820cd0 lens_set_sharpness
1f820d10 lens_set_saturation
1f820d50 lens_set_color_tone
1f820d90 SW1
1f820dcc lens_take_picture
1f820ed0 SW2
1f820f0c expo_override_active
1f820f3c bv_update_lensinfo
1f820fa0 bv_apply_tv
1f820ff4 bv_apply_av
1f821044 bv_apply_iso
1f821200 bv_set_rawshutter
1f821268 bv_set_rawiso
1f8212cc bv_set_rawaperture
1f821318 bv_auto_update
1f821508 lens_set_rawaperture
1f8215e8 lens_set_rawiso
1f821628 lens_set_rawshutter
1f821750 lens_set_drivemode
1f821788 lens_set_wbs_gm
1f8217bc lens_set_wbs_ba
1f8217f0 hdr_set_rawiso
1f821800 hdr_set_rawshutter
1f821834 hdr_set_rawaperture
1f82187c hdr_set_ae
1f8218b4 hdr_set_flash_ae
1f8218e8 get_max_analog_iso
1f8218f0 get_max_ae_ev
1f8218f8 get_ae_value
1f821908 get_bv
1f8219a8 get_ae_state
1f821a9c prop_add_handler
1f821b30 prop_add_internal_handlers
1f821b6c prop_reset_registration
1f821ba4 prop_init
1f821ba8 prop_update_registration
1f821bc0 prop_request_change
1f821d54 prop_request_change_wait
1f8221ac is_camera
1f8221ec is_native_movie_mode
1f822208 set_custom_movie_mode
1f822220 is_custom_movie_mode
1f822230 is_movie_mode
1f822268 set_recording_custom
1f8222a4 is_canon_bottom_bar_dirty
1f8222ac get_last_time_active
1f8222bc handle_other_events
1f8222c4 handle_common_events_startup
1f822340 reset_pre_shutdown_flag_step
1f822370 check_pre_shutdown_flag
1f8223c4 handle_scrollwheel_fast_clicks
1f822428 handle_common_events_by_feature
1f8226f4 detect_double_click
1f8227d8 get_info_button_name
1f8227e4 gui_uilock
1f822834 ui_lock
1f822838 fake_simple_button
1f822878 redraw_after
1f8228b0 draw_line
1f8229a4 draw_circle
1f822ae4 fill_circle
1f822ba4 draw_angled_line
1f822d84 set_shooting_mode
1f822dd8 force_liveview
1f822ea4 close_liveview
1f822ec0 movtweak_task_init
1f822f38 movtweak_step
1f8231f0 get_screen_layout_ptr
1f823238 get_screen_layout
1f823288 screen_layout_update
1f8232a4 screen_layout_toggle
1f8232d8 rec_notify_continuous
1f823544 rec_notify_trigger
1f823584 bv_enable
1f8236a0 bv_disable
1f823734 bv_toggle
1f82376c movie_tweak_menu_init
1f823790 draw_beta_warning
1f823884 draw_404_page
1f823954 draw_help_not_installed_page
1f8239dc menu_help_show_page
1f823ad8 menu_help_redraw
1f823b0c menu_help_next_page
1f823b4c menu_help_prev_page
1f823b90 menu_help_go_to_page
1f823bb0 str_make_lowercase
1f823bd4 menu_help_go_to_label
1f823dbc get_af_point
1f823dcc set_af_point
1f823e64 handle_af_patterns
1f823fd4 play_zoom_center_on_selected_af_point
1f8241f4 afp_menu_init
1f82487c reset_override_zoom_buttons
1f824890 LensFocus
1f8248b0 LensFocus2
1f824a64 LensFocusSetup
1f824a9c get_follow_focus_mode
1f824aa4 get_follow_focus_dir_v
1f824ac0 get_follow_focus_dir_h
1f824adc display_lens_hyperfocal
1f824cb0 is_focus_stack_enabled
1f824cd8 is_rack_focus_enabled
1f824cf0 rack_focus_start_now
1f824d10 lens_focus_start
1f824d30 lens_focus_enqueue_step
1f824d64 lens_focus_stop
1f824d78 get_focus_confirmation
1f824d84 is_manual_focus
1f824da4 should_override_zoom_buttons
1f824de8 is_follow_focus_active
1f824f74 focus_stack_run
1f8252bc can_lv_trap_focus_be_active
1f825334 get_focus_graph
1f825394 get_lv_focus_confirmation
1f825618 handle_trap_focus
1f825674 handle_follow_focus_save_restore
1f82573c handle_rack_focus_menu_overrides
1f82581c handle_follow_focus
1f8259dc NotifyBoxHide
1f8259f0 NotifyBox
1f825ae0 bootflag_write_bootblock
1f825d00 get_current_dialog_handler
1f825d18 canon_gui_disable_front_buffer
1f825d30 canon_gui_enable_front_buffer
1f825d54 canon_gui_front_buffer_disabled
1f825de4 vram_params_set_dirty
1f825e54 update_vram_params
1f8263bc get_lcd_422_buf
1f826408 guess_fastrefresh_direction
1f826474 get_fastrefresh_422_buf
1f8264f0 get_yuv422_vram
1f826590 get_yuv422_hd_vram
1f8265d4 vram_clear_lv
1f826600 green_screen_step
1f826c1c EngDrvOutLV
1f826d1c fps_should_record_wav
1f826d24 get_current_tg_freq
1f826d58 get_max_shutter_timer
1f826d9c get_shutter_speed_us_from_timer
1f826dd4 get_current_shutter_reciprocal_x1000
1f826e20 fps_get_shutter_speed_shift
1f826e28 was_sound_recording_disabled_by_fps_override
1f826e40 fps_get_current_x1000
1f826e80 fps_mvr_log
1f826ee4 handle_fps_events
1f826eec fps_get_iso_correction_evx8
1f826ef4 fps_expo_iso_step
1f826ef8 get_frame_iso
1f826f08 set_frame_iso
1f826f0c can_set_frame_iso
1f826f14 get_frame_shutter_timer
1f826f1c set_frame_shutter_timer
1f826f20 set_frame_shutter
1f826f24 can_set_frame_shutter_timer
1f826ff0 is_native_iso
1f827048 kelvin_n_gm_auto
1f82728c iso_toggle
1f8273f4 shutter_toggle
1f82748c kelvin_toggle
1f828f30 aperture_toggle
1f829790 display_idle
1f829a40 uniwb_is_active
1f829d38 is_hdr_bracketing_enabled
1f829fcc is_intervalometer_running
1f829fdc get_interval_count
1f829fec get_interval_time
1f829ffc set_interval_time
1f82a00c get_bulb_shutter_raw_equiv
1f82a028 get_seconds_clock
1f82a038 get_ms_clock_value
1f82a050 get_us_clock_value
1f82a068 get_ms_clock_value_fast
1f82a078 should_run_polling_action
1f82a0a4 get_trap_focus
1f82a0b4 set_flash_firing
1f82a0f4 get_afframe_pos
1f82a174 set_lv_zoom
1f82a22c get_mlu_delay
1f82a2a4 focus_box_get_raw_crop_offset
1f82a410 center_lv_afframe
1f82a424 move_lv_afframe
1f82a5b0 center_lv_afframe_do
1f82a914 next_image_in_play_mode
1f82a984 playback_compare_images_task
1f82aadc expfuse_preview_update_task
1f82ac40 playback_compare_images
1f82ac6c expfuse_preview_update
1f82ac98 expo_adjust_playback
1f82aec8 ensure_movie_mode
1f82af24 is_lowgain_iso
1f82af70 is_round_iso
1f82afbc get_picstyle_name
1f82b398 get_picstyle_shortname
1f82b4a4 mvr_rec_start_shoot
1f82b58c zoom_focus_ring_trigger
1f82b60c zoom_focus_ring_engage
1f82b6b0 handle_zoom_x5_x10
1f82b770 zoom_sharpen_step
1f82b8c8 is_bulb_mode
1f82b910 handle_mlu_handheld
1f82c24c ensure_bulb_mode
1f82c2bc set_drive_single
1f82c2ec bulb_take_pic
1f82c68c expo_value_rounding_ok
1f82c6ec round_shutter
1f82c830 round_aperture
1f82c9d4 round_expo_comp
1f82cacc expo_lock_update_value
1f82cae4 handle_expo_preset
1f82cccc hdr_flag_picture_was_taken
1f82cce0 hdr_script_get_first_file_number
1f82cd1c hdr_create_script
1f82d110 interval_create_script
1f82d39c take_a_pic
1f82d7a8 movie_start
1f82d860 movie_end
1f82d94c hdr_shot
1f82dd9c schedule_remote_shot
1f82ddb0 schedule_movie_start
1f82ddc4 schedule_movie_end
1f82ddd8 get_out_of_play_mode
1f82de60 display_trap_focus_info
1f82e01c display_shooting_info_lv
1f82e0fc intervalometer_stop
1f82e168 handle_intervalometer
1f82e1a8 wait_till_next_second
1f82e1d4 is_continuous_drive
1f82e1f4 take_fast_pictures
1f82e31c remote_shot
1f83004c shoot_task_redraw
1f830068 iso_refresh_display
1f830070 hdr_video_enabled
1f830078 hdr_get_iso_range
1f8300a8 hdr_step
1f8300b0 hdr_kill_flicker
1f8300b8 get_effective_hdr_iso_for_display
1f8300f8 hdr_mvr_log
1f83073c get_digic_iso_gain_movie
1f830754 get_digic_iso_gain_photo
1f83076c set_display_gain_equiv
1f830798 set_movie_digital_iso_gain
1f8307b0 set_movie_digital_iso_gain_for_gradual_expo
1f8307c0 set_photo_digital_iso_gain_for_bv
1f8307d0 gain_to_ev_scaled
1f830814 digic_iso_print_movie
1f8308d4 display_gain_print
1f830924 digic_iso_or_gain_toggle
1f8309b4 digic_iso_toggle
1f8309e4 display_gain_toggle
1f8309f0 digic_iso_toggle_movie
1f8309fc vignetting_correction_apply_lvmgr
1f830a3c image_effects_step
1f830a48 digic_iso_step
1f830d08 wait_lv_frames
1f830da4 display_is_on
1f830db0 get_task_name_from_id
1f830dfc task_update_loads
1f831044 tasks_toggle_flags
1f831058 tasks_print
1f8313d8 ml_shutdown
1f831444 lv_vsync_signal
1f831458 lv_vsync
1f8314a0 tskmon_trace_thread
1f8314a4 tskmon_update_loads
1f8315f4 tskmon_stack_check
1f831610 tskmon_stack_check_all
1f831634 tskmon_stack_get_max
1f831658 tskmon_task_dispatch
1f831a04 tskmon_init
1f831a40 tskmon_trace
1f831ba0 GetBatteryLevel
1f831bb0 GetBatteryPerformance
1f831bc0 GetBatteryHist
1f831bd0 GetBatteryTimeRemaining
1f831bf0 GetBatteryDrainRate
1f831c0c RefreshBatteryLevel_1Hz
1f831d90 precompute_yuv2rgb
1f831e34 yuv2rgb
1f831eb8 rgb2yuv422_rec709
1f831f78 rgb2yuv422_rec601
1f832048 rgb2yuv422
1f83204c uyvy_split
1f83207c yuv_resize
1f832130 yuv_halfcopy
1f8321cc yuv411_to_422
1f832230 yuv411_to_rgb
1f832360 yuvcpy_main
1f8323cc little_cleanup
1f832450 yuv422_get_pixel
1f832a48 hist_build_raw
1f832e58 raw_histo_update
1f832eb0 hist_draw_image
1f8336d0 hist_print
1f8337cc hist_warn_display
1f833850 hist_highlight
1f833880 raw_hist_get_percentile_levels
1f833cd8 raw_hist_get_percentile_level
1f833d08 raw_hist_get_overexposure_percentage
1f833e50 falsecolor_value_ex
1f833e64 falsecolor_value
1f833e84 falsecolor_fordraw
1f833eb0 draw_false_downsampled
1f834098 falsecolor_palette_name
1f834124 falsecolor_palette_preview
1f83418c falsecolor_display
1f8341c0 falsecolor_display_palette
1f8344f4 sound_recording_enabled_canon
1f83450c sound_recording_enabled
1f8345e4 get_audio_levels
1f8345f0 audio_level_to_db
1f834a0c audio_meters_are_drawn
1f834a10 audio_configure
1f834ee8 input_toggle
1f835004 volume_up
1f83507c volume_down
1f8350ec out_volume_up
1f835120 out_volume_down
1f835154 mic_out
1f835338 idle_globaldraw_dis
1f835350 idle_globaldraw_en
1f835a10 batt_display
1f836a68 get_y_skip_offset_for_overlays
1f836b34 get_y_skip_offset_for_histogram
1f836b90 lv_luma_is_accurate
1f836df8 digic_zoom_overlay_enabled
1f836e00 focus_peaking_as_display_filter
1f836e08 histogram_or_small_waveform_enabled
1f836e88 get_bvram_mirror
1f8379b4 crop_set_dirty
1f837a0c is_valid_cropmark_filename
1f837a7c set_movie_cropmarks
1f837b14 reset_movie_cropmarks
1f837b2c get_global_draw
1f837c48 get_zoom_overlay_trigger_mode
1f837c78 get_zoom_overlay_trigger_by_focus_ring
1f838390 cropmark_clear_cache
1f8392ec get_global_draw_setting
1f8392fc zebra_highlight_raw_advanced
1f83968c get_under_and_over_exposure
1f839800 bvram_mirror_init
1f839870 get_spot_yuv_ex
1f839a4c get_spot_yuv
1f839a7c get_spot_motion
1f839d40 get_spot_focus
1f839e58 spotmeter_erase
1f83a708 zoom_overlay_disable
1f83a720 zoom_overlay_set_countdown
1f83a730 digic_zoom_overlay_step
1f83a734 liveview_display_idle
1f83a7f0 handle_zoom_overlay
1f83a910 zebra_should_run
1f83a9a8 should_draw_zoom_overlay
1f83aaa8 nondigic_zoom_overlay_enabled
1f83adec should_draw_bottom_graphs
1f83ae40 draw_histogram_and_waveform
1f83b8d0 idle_force_powersave_in_1s
1f83b90c idle_force_powersave_now
1f83b948 handle_powersave_key
1f83b9e0 idle_wakeup_reset_counters
1f83c080 PauseLiveView
1f83c278 ResumeLiveView
1f83c3e4 redraw
1f83c470 handle_transparent_overlay
1f83c9bc lens_display_set_dirty
1f83ca98 is_focus_peaking_enabled
1f83cb10 update_disp_mode_bits_from_params
1f83dcd0 update_disp_mode_params_from_bits
1f83ddac get_disp_mode
1f83ddbc toggle_disp_mode
1f83dea0 handle_disp_preset_key
1f83df6c handle_livev_playback
1f83e028 peaking_benchmark
1f83e264 vectorscope_should_draw
1f83e274 vectorscope_request_draw
1f83e284 vectorscope_start
1f83e2cc vectorscope_pixel_step
1f83e410 vectorscope_redraw
1f83ed28 unsafe_beep
1f83ed84 beep
1f83ed9c beep_times
1f83ee18 beep_custom
1f83eec4 WAV_StartRecord
1f83eec8 WAV_StopRecord
1f83eed0 display_shooting_info
1f83efc0 info_trim_string
1f83f03c info_get_cardmaker
1f83f054 info_get_cardmodel
1f83f06c info_get_cardlabel
1f83f07c info_get_string
1f83fe28 info_measure_string
1f83feb8 info_get_anchor_offset
1f83ff18 info_get_by_name
1f83ff5c info_get_absolute
1f840070 info_resolve_color
1f8400e0 info_print_string
1f840210 info_print_text
1f840320 info_print_fill
1f840380 info_print_icon
1f84039c info_print_battery_perf
1f8404f0 info_print_battery_icon
1f84051c info_get_next_z
1f84055c info_print_element
1f8405fc info_print_config
1f8406e8 info_print_screen
1f840774 info_add_item
1f840818 info_free_item
1f840870 take_screenshot
1f840cb4 get_file_prefix
1f840cc0 file_prefix_set
1f840dbc file_prefix_reset
1f8417fc lvinfo_add_items
1f84187c lvinfo_add_item
1f841884 lvinfo_display
1f841b80 ml_unregister_cbr
1f841c64 ml_register_cbr
1f841e54 ml_notify_cbr
1f841f10 debug_cbr_tree
1f8424a4 console_show
1f8424b8 console_hide
1f8424e0 console_toggle
1f8424fc console_set_help_text
1f842518 console_set_status_text
1f842560 console_clear
1f84258c console_puts
1f842774 console_printf
1f8427b8 console_vprintf
1f8427ec console_show_status
1f84292c console_draw_from_menu
1f842950 exit
1f842974 printf
1f8429b4 puts
1f8429d0 fputs
1f8429e4 putchar
1f842a04 open
1f842ac0 read
1f842b08 close
1f842b18 lseek
1f842b54 fopen
1f842bbc fclose
1f842bcc fread
1f842be0 fwrite
1f84383c tcc_delete
1f843c4c tcc_add_file
1f843dec tcc_add_symbol
1f843f58 tcc_new
1f844198 tcc_set_options
1f844f60 tcc_get_symbol
1f846a2c tcc_load_offline_section
1f846d14 tcc_relocate
1f8489bc module_load_all
1f8489d0 module_unload_all
1f8489e4 module_load
1f848a6c module_get_symbol
1f848a78 module_exec
1f848c14 module_unload
1f848c24 module_exec_cbr
1f848ca4 module_translate_key
1f8490cc module_send_keypress
1f8490e4 handle_module_keys
1f84918c module_display_filter_enabled
1f849204 module_display_filter_update
1f8492a4 module_get_config_var
1f84931c module_config_var_lookup
1f849390 module_save_configs
1f849434 module_shutdown
1f849470 ml_rpc_init
1f849484 ml_rpc_verbose
1f849494 ml_rpc_send
1f849508 ml_rpc_call
1f84953c ml_rpc_handler
1f849700 ml_rpc_send_recv
1f8497a4 ml_rpc_readmem
1f849838 ml_rpc_available
1f8498c8 ml_rpc_send_vignetting
1f849900 get_free_buffer
1f849958 ptpbuf_add
1f849a98 raw_red_pixel
1f849ad8 raw_green_pixel
1f849b1c raw_blue_pixel
1f849b64 raw_red_pixel_dark
1f849bcc raw_green_pixel_dark
1f849c3c raw_blue_pixel_dark
1f849cb0 raw_red_pixel_bright
1f849d18 raw_green_pixel_bright
1f849d88 raw_blue_pixel_bright
1f84a820 raw_buffer_intercept_from_stateobj
1f84a840 raw_set_preview_rect
1f84a924 raw_set_geometry
1f84aa50 raw_get_pixel
1f84ac9c raw_get_pixel_ex
1f84add0 raw_set_pixel
1f84afd8 raw_get_gray_pixel
1f84b1f4 raw_to_ev
1f84b2fc ev_to_raw
1f84b364 raw_lv_redirect_edmac
1f84b378 raw_lv_settings_still_valid
1f84b3e0 raw_preview_fast_ex
1f84b47c raw_preview_fast
1f84b4a4 raw_lv_is_enabled
1f84b4b4 raw_force_aspect_ratio_1to1
1f84b594 raw_set_dirty
1f84b5a8 get_dxo_dynamic_range
1f84b644 can_use_raw_overlays_photo
1f84bc88 raw_update_params
1f84bd44 raw_lv_request
1f84bdd0 raw_lv_release
1f84be30 can_use_raw_overlays
1f84be8c can_use_raw_overlays_menu
1f84bf00 menu_set_warning_raw
1f84bf54 menu_checkdep_raw
1f84bfcc edmac_memcpy_res_lock
1f84bfd0 edmac_memcpy_res_unlock
1f84bfd4 edmac_copy_rectangle_cbr_start
1f84c158 edmac_copy_rectangle_adv_cleanup
1f84c1a8 edmac_copy_rectangle_adv_finish
1f84c1e0 edmac_copy_rectangle_adv_start
1f84c244 edmac_copy_rectangle_adv
1f84c298 edmac_copy_rectangle
1f84c2d0 edmac_copy_rectangle_start
1f84c308 edmac_copy_rectangle_finish
1f84c30c edmac_memset
1f84c3e0 edmac_find_divider
1f84c418 edmac_memcpy
1f84c494 edmac_memcpy_start
1f84c530 edmac_memcpy_finish
1f84d3c8 reverse_bytes_order
1f84d490 dng_set_thumbnail_size
1f84d4a4 dng_set_camname
1f84d4b8 dng_set_camserial
1f84d4cc dng_set_description
1f84d4e0 dng_set_lensmodel
1f84d4f4 dng_set_focal
1f84d508 dng_set_aperture
1f84d51c dng_set_shutter
1f84d530 dng_set_framerate
1f84d548 dng_set_framerate_rational
1f84d55c dng_set_iso
1f84d570 dng_set_wbgain
1f84d59c dng_set_datetime
1f84d5d4 save_dng
1f84da34 get_afma
1f84da6c set_afma
1f84dafc set_afma_mode
1f84db38 get_afma_mode
1f84db48 get_afma_max
1f84db50 strrchr
1f84db78 strncpy
1f84db98 strlen
1f84dbb4 strncmp
1f84dbec strcpy
1f84dc08 strcmp
1f84dc38 strcasecmp
1f84dc7c strtoull
1f84dc7c strtoumax
1f84dc7c strtouq
1f84de84 strtoul
1f84e020 strchr
1f84e04c memcmp
1f84e084 atoi
1f84e084 atol
1f84e100 memmove
1f84e168 setjmp
1f84e17c longjmp
1f84e194 memcpy
1f84e2fc memccpy
1f84e3a8 memset
1f84e530 cosf
1f84e5d4 log2f
1f84e5f0 roundf
1f84e66c sinf
1f84e728 logf
1f84e88c powf
1f84ed90 sqrtf
1f84eeac __ieee754_logf
1f84f264 __ieee754_powf
1f84fbfc __ieee754_rem_pio2f
1f850050 __ieee754_sqrtf
1f850164 __kernel_cosf
1f850378 __kernel_rem_pio2f
1f850cc8 __kernel_sinf
1f850e14 fabsf
1f850e1c finitef
1f850e38 floorf
1f850f0c __fpclassifyf
1f850f78 nanf
1f850f84 scalbnf
1f8510a0 matherr
1f8510a8 nan
1f8510b8 rint
1f851258 copysignf
1f851268 __aeabi_uidiv
1f851268 __udivsi3
1f85135c __aeabi_uidivmod
1f85137c __aeabi_idiv
1f85137c __divsi3
1f8514a4 __aeabi_idivmod
1f8514c8 __aeabi_drsub
1f8514d0 __aeabi_dsub
1f8514d0 __subdf3
1f8514d4 __adddf3
1f8514d4 __aeabi_dadd
1f8517e4 __aeabi_ui2d
1f8517e4 __floatunsidf
1f851808 __aeabi_i2d
1f851808 __floatsidf
1f851830 __aeabi_f2d
1f851830 __extendsfdf2
1f851870 __aeabi_ul2d
1f851870 __floatundidf
1f851884 __aeabi_l2d
1f851884 __floatdidf
1f8518e4 __aeabi_dmul
1f8518e4 __muldf3
1f851b74 __aeabi_ddiv
1f851b74 __divdf3
1f851d80 __gedf2
1f851d80 __gtdf2
1f851d88 __ledf2
1f851d88 __ltdf2
1f851d90 __cmpdf2
1f851d90 __eqdf2
1f851d90 __nedf2
1f851e18 __aeabi_cdrcmple
1f851e34 __aeabi_cdcmpeq
1f851e34 __aeabi_cdcmple
1f851e4c __aeabi_dcmpeq
1f851e64 __aeabi_dcmplt
1f851e7c __aeabi_dcmple
1f851e94 __aeabi_dcmpge
1f851eac __aeabi_dcmpgt
1f851ec4 __aeabi_d2iz
1f851ec4 __fixdfsi
1f851f20 __aeabi_d2f
1f851f20 __truncdfsf2
1f851fc0 __aeabi_frsub
1f851fc8 __aeabi_fsub
1f851fc8 __subsf3
1f851fcc __addsf3
1f851fcc __aeabi_fadd
1f852188 __aeabi_ui2f
1f852188 __floatunsisf
1f852190 __aeabi_i2f
1f852190 __floatsisf
1f8521b0 __aeabi_ul2f
1f8521b0 __floatundisf
1f8521c0 __aeabi_l2f
1f8521c0 __floatdisf
1f85226c __aeabi_fmul
1f85226c __mulsf3
1f852404 __aeabi_fdiv
1f852404 __divsf3
1f852564 __gesf2
1f852564 __gtsf2
1f85256c __lesf2
1f85256c __ltsf2
1f852574 __cmpsf2
1f852574 __eqsf2
1f852574 __nesf2
1f8525d8 __aeabi_cfrcmple
1f8525e8 __aeabi_cfcmpeq
1f8525e8 __aeabi_cfcmple
1f852600 __aeabi_fcmpeq
1f852618 __aeabi_fcmplt
1f852630 __aeabi_fcmple
1f852648 __aeabi_fcmpge
1f852660 __aeabi_fcmpgt
1f852678 __aeabi_f2iz
1f852678 __fixsfsi
1f8526d4 __aeabi_f2uiz
1f8526d4 __fixunssfsi
1f852728 __aeabi_uldivmod
1f852764 __gnu_ldivmod_helper
1f8527a8 __gnu_uldivmod_helper
1f8527e8 __divdi3
1f852cb8 __udivdi3
1f853128 __clzsi2
1f853440 build_user
1f853457 build_date
1f85346f build_id
1f853487 build_version
1f85350c menu_icons_body
1f862310 task_mapping_gui_main_task_7d
1f862318 task_create_menu_task
1f86232c task_create_menu_redraw_task
1f862340 task_create_debug_loop_task
1f862354 task_create_bitrate_task
1f862368 task_create_tweak_task
1f86237c task_create_focus_misc_task
1f862390 task_create_focus_task
1f8623a4 task_create_NotifyBox_task
1f8623b8 task_create_shoot_task
1f8623cc task_create_seconds_clock_task
1f8623e0 task_create_vignetting_init
1f8623f4 task_create_compute_audio_level_task
1f862408 task_create_meter_task
1f86241c task_create_livev_lopriority_task
1f862430 task_create_livev_hipriority_task
1f862444 task_create_clearscreen_task
1f862458 task_create_beep_task
1f86246c task_create_console_task
1f862480 task_create_module_load_task
1f862498 task_create_fio_init
1f8624ac task_create_mem_init
1f8624c0 task_create_debug_init_func
1f8624d4 task_create_electronic_level_init
1f8624e8 task_create_exmem_init
1f8624fc task_create_bmp_init
1f862510 task_create_config_menu_init
1f862524 task_create_bitrate_init
1f862538 task_create_tweak_init
1f86254c task_create_lens_info_init
1f862560 task_create_lens_init
1f862574 task_create_prop_init
1f862588 task_create_movtweak_init
1f86259c task_create_help_menu_init
1f8625b0 task_create_focus_init
1f8625c4 task_create_dlg_init
1f8625d8 task_create_fps_init
1f8625ec task_create_shoot_init
1f862600 task_create_lv_img_init
1f862614 task_create_state_init
1f862628 task_create_vsync_init
1f86263c task_create_hist_init
1f862650 task_create_audio_menus_init
1f862664 task_create_audio_meter_init
1f862678 task_create_zebra_init
1f86268c task_create_vectorscope_feature_init
1f8626a0 task_create_beep_init
1f8626b4 task_create_info_init
1f8626c8 task_create_lvinfo_init
1f8626dc task_create_module_init
1f8626f0 task_create_ml_rpc_init
1f862704 task_create_raw_init
1f862718 task_create_edmac_memcpy_init
1f865d14 config_autosave
1f86657c af_frame_autohide
1f866af8 expo_tweak_menus
1f8670a0 digital_zoom_shortcut
1f8670a4 lens_info
1f867404 lens_mlu_delay
1f867550 ae_mode_movie
1f867554 artist_name
1f867594 copyright_info
1f8675d4 __camera_model_short
1f867630 bv_tv
1f867634 bv_av
1f867638 bv_iso
1f867684 expo_override_menus
1f868528 bm2lv
1f86853c os
1f868560 vram_lv
1f868570 vram_hd
1f868580 lv2hd
1f868590 lv2raw
1f8685b4 hdr_stepsize
1f8685b8 hdr_steps
1f8692ec tweak_menus_shoot
1f86a148 digic_iso_gain_movie_for_gradual_expo
1f86a14c digic_iso_gain_photo_for_bv
1f86a2c0 hist_meter
1f86a2c4 hist_draw
1f86a2c8 raw_histogram_enable
1f86a2cc hist_log
1f86a2d0 hist_colorspace
1f86a2d4 hist_warn
1f86a2d8 false_colour
1f86aa20 mic_inserted
1f86abe0 zebra_menus
1f86b06c display_dont_mirror
1f86b070 livev_cfg_menus
1f86bf90 beep_enabled
1f86c194 info_config_photo
1f86cee0 info_config_liveview
1f86d008 info_config
1f86da2c module_lockfile
1f86db50 ptpbuf_data
1f86db70 raw_info
1f86dc1c edmac_read_chan
1f86dc20 edmac_write_chan
1f86dc24 dmaConnection
1f86dcc4 __fdlib_version
1f86dcc5 __exidx_start
1f86dcd0 __exidx_end
1f86dd00 ml_used_mem
1f86dd04 ml_reserved_mem
1f86dd0c ml_gui_initialized
1f86de14 ml_started
1f86de8c cf_card_workaround
1f870298 beta_warn
1f8702c4 menu_help_active
1f87058c menu_upside_down
1f870594 menu_redraw_blocked
1f8706f0 joy_center_pressed
1f870708 timed_dump
1f870730 bmp_lock
1f871864 retry_count
1f871868 dyn_fonts
1f8719e4 bulk_transfer_buf
1f871b70 lcd_release_running
1f871b74 lcd_sensor_shortcuts
1f871c6c defish_preview
1f871c78 timelapse_playback
1f871c7c quick_review_allow_zoom
1f871c98 play_rate_flag
1f871c9c rating_in_progress
1f871cd8 joke_mode
1f871cf0 bmp_color_scheme
1f871d1c focus_box_lv_jump
1f872268 crop_info
1f8722e4 focus_units
1f872350 ml_taking_pic
1f873364 shutter_count
1f873368 shutter_count_plus_lv_actuations
1f87336c display_sensor
1f873370 video_mode_crop
1f873374 video_mode_resolution
1f873378 video_mode_fps
1f87337c lv
1f873380 camera_model_id
1f873388 __recording_custom
1f87338c lv_paused
1f8733d0 bv_auto
1f8733e4 movie_was_stopped_by_set
1f8733ec hdmi_force_vga
1f8733f4 rec_notify
1f8733fc smooth_iso
1f873414 af_patterns
1f87343c focus_value_raw
1f873540 focus_value
1f873544 focus_value_delta
1f873548 focus_min_value
1f8737ec motion_detect
1f873a34 trap_focus
1f873c44 expfuse_running
1f873d0c remote_shot_flag
1f873d48 zoom_auto_exposure
1f874c54 display_gain_menu_index
1f874c80 show_cpu_usage_flag
1f875694 ml_shutdown_requested
1f8760cc falsecolor_palette
1f8760d0 falsecolor_draw
1f8768d4 disp_profiles_0
1f8768f0 idle_display_turn_off_after
1f87690c focus_peaking_grayscale
1f876a10 clearscreen
1f876a6c beep_playing
1f876a8c voice_tags
1f87729c console_visible
1f879974 module_console_enabled
1f879994 module_autoload_disabled
1f879998 module_ignore_crashes
1f87999c ml_rpc_verbosity
1f8799a0 ml_rpc_transferred
1f8799c0 ml_rpc_available_cached
1f879d00 alo
1f879d04 gui_sem
1f879d08 picstyle_settings
1f879df8 font_small
1f879e04 font_large
1f879e10 font_med
1f879e1c font_dynamic
1f879e7c font_med_large
1f879e88 font_canon
1f879e94 defish_ind
1f879e98 wb_kelvin_ph
1f879e9c lv_movie_select
1f879ea0 auto_power_off_time
1f879ea4 lv_disp_mode
1f879ea8 metering_mode
1f879eac avail_shot
1f879eb0 burst_count
1f879eb4 mirror_down
1f879eb8 sensor_cleaning
1f879ebc firmware_version
1f879edc image_review_time
1f879ee0 shooting_mode
1f879ee4 camera_model
1f879f04 drive_mode
1f879f08 gui_state
1f879f0c __recording
1f879f10 pic_quality
1f879f14 lv_dispsize
1f879f18 shooting_mode_custom
1f879f1c ext_monitor_hdmi
1f879f20 sound_recording_mode
1f879f24 lvaf_mode
1f879f28 efic_temp
1f879f2c auto_iso_range
1f879f30 af_mode
1f879f34 battery_level_bars
1f879f38 hdmi_code
1f879f3c strobo_firing
1f879f44 shooting_type
1f879f48 backlight_level
1f879f4c date_format
1f879f50 dofpreview
1f879f58 uilock
1f879f5c screen_layout_menu_index
1f879f60 bm2lv_x_cache
1f87ae60 y_times_BMPPITCH_cache
1f87b6d0 yuv2rgb_GU
1f87bad0 yuv2rgb_GV
1f87bed0 yuv2rgb_RV
1f87c2d0 yuv2rgb_BU
1f87c6d0 histogram
1f87cedc rca_monitor
1f87cee0 info_config_dynamic
1f87f3e0 local_stack
1f87f3e4 nocode_wanted
1f87f3e8 funcname
1f87f3ec last_line_num
1f87f3f0 scope_stack_bottom
1f87f3f4 func_vc
1f87f3f8 func_vt
1f87f400 macro_ptr
1f87f404 table_ident
1f87f408 local_label_stack
1f87f40c global_expr
1f87f410 global_stack
1f87f414 global_label_stack
1f87f418 rt_bound_error_msg
1f87f41c tcc_state
1f87f420 rt_prog_main
1f87f424 stab_section
1f87f428 tok_flags
1f87f42c anon_sym
1f87f430 ind
1f87f434 file
1f87f438 total_lines
1f87f43c tokcstr
1f87f450 tokc
1f87f458 parse_flags
1f87f45c cur_text_section
1f87f460 total_bytes
1f87f464 loc
1f87f468 bss_section
1f87f46c symtab_section
1f87f470 stabstr_section
1f87f474 text_section
1f87f478 data_section
1f87f47c sym_free_first
1f87f480 strtab_section
1f87f484 const_wanted
1f87f488 tok_ident
1f87f48c last_ind
1f87f490 func_ind
1f87f494 ch
1f87f498 size_type
1f87f4a0 sym_pools
1f87f4a4 nb_sym_pools
1f87f4a8 tok
1f87f4ac func_old_type
1f87f4b4 rsym
1f87f4b8 int_type
1f87f4c0 define_stack
1f87f4c4 char_pointer_type
1f87f4cc ml_rpc_buffer
1f87f4e0 ptpbuf_fetchable
1f87f520 ptpbuf_buffers
c0220000 camera_engine
ff010fb0 cstart
ff014c10 get_current_task
ff01559c create_init_task
ff018734 init_task
ff021b44 gui_main_task
ff021f04 GUI_Control
ff022004 GUI_ChangeMode
ff022680 gui_init_end
ff061a88 StartASIFDMAADC
ff061c08 StopASIFDMAADC
ff061c44 StartASIFDMADAC
ff061d20 StopASIFDMADAC
ff0621c4 SetNextASIFADCBuffer
ff06227c SetNextASIFDACBuffer
ff063c70 sounddev_task
ff0640ec sounddev_active_in
ff0640ec SoundDevActiveIn
ff064304 SoundDevShutDownIn
ff06858c prop_deliver
ff068614 prop_register_slave
ff0686a4 prop_unregister_slave
ff06934c PROPAD_GetPropertyData
ff06e8b0 EnableImagePhysicalScreenParameter
ff07365c PowerAudioOutput
ff0736f4 SetSamplingRate
ff073944 SetAudioVolumeOut
ff075210 LoadCalendarFromRTC
ff0776ac DryosDebugMsg
ff077990 dm_set_store_level
ff07842c call
ff07a704 BulkOutIPCTransfer
ff07a7d4 BulkInIPCTransfer
ff07aed4 RegisterRPCHandler
ff07af84 RequestRPC
ff07b708 gui_timer_something
ff07b7c4 create_named_semaphore
ff07b924 take_semaphore
ff07ba0c give_semaphore
ff07bdf8 msleep
ff07beac task_create
ff07ca74 GetSizeOfMaxRegion
ff07cac8 GetMemoryInformation
ff07dee8 GetMemoryAddressOfMemoryChunk
ff07e4a0 GetFirstChunkFromSuite
ff07ec38 GetNextMemoryChunk
ff07fc28 msg_queue_create
ff07fe0c CreateRecursiveLock
ff080224 dma_memcpy
ff080e78 AllocateMemoryResource
ff080ec4 AllocateContinuousMemoryResource
ff080fdc FreeMemoryResource
ff084ca4 task_trampoline
ff08779c get_obj_attr
ff087940 is_taskid_valid
ff08e350 DispSensorStart
ff0a8738 SetGUIRequestMode
ff0a9384 gui_massive_event_loop
ff0aabc4 gui_change_mode
ff0ab1c0 gui_local_post
ff0ab5dc gui_other_post
ff0ab858 gui_post_10000085
ff0ab8e4 gui_change_shoot_type_post
ff0ab97c gui_change_lcd_state_post
ff0ac000 gui_init_event
ff15fc84 ptpPropSetUILock
ff16004c PtpDps_remote_release_SW1_SW2_worker
ff1e08e0 mvrSetDefQScale
ff1e0918 mvrSetFullHDOptSize
ff1e0b08 mvrSetGopOptSizeFULLHD
ff1e0e04 mvrFixQScale
ff1f5360 SetEDmac
ff1f5418 ConnectWriteEDmac
ff1f54dc ConnectReadEDmac
ff1f5660 StartEDmac
ff1f5850 RegisterEDmacCompleteCBR
ff1f5864 UnregisterEDmacCompleteCBR
ff1f5878 RegisterEDmacAbortCBR
ff1f58b8 UnregisterEDmacAbortCBR
ff1f5980 RegisterEDmacPopCBR
ff1f5994 UnregisterEDmacPopCBR
ff1f664c shamem_read
ff1f9694 CreateResLockEntry
ff1f9bdc LockEngineResources
ff1f9d18 UnLockEngineResources
ff1fc434 FIO_ReadFile
ff1fc5b4 FIO_SeekFile
ff1fc5d4 FIO_WriteFile
ff1fc684 FIO_CloseFile
ff1fd42c FIO_FindNextEx
ff1fd554 FIO_FindClose
ff202814 LightMeasure_n_Callback_r0
ff205c70 msg_queue_receive
ff205e5c msg_queue_post
ff205e9c msg_queue_count
ff205fa8 AcquireRecursiveLock
ff2060bc ReleaseRecursiveLock
ff209670 vsnprintf
ff236e9c GUI_SetRollingPitchingLevelStatus
ff237724 GUI_SetLvMode
ff237858 Gui_SetSoundRecord
ff237a90 SetAudioVolumeIn
ff2885cc ptp_register_handler
ff300640 dialog_redraw
ff336d60 ErrForCamera_handler
ff347918 LiveViewApp_handler
ff347e6c LiveViewApp_handler_BL_JudgeBottomInfoDispTimerState
ff348d94 LiveViewApp_handler_end
ff3552dc PlayMain_handler
ff35df58 ShootOlcApp_handler
ff361bdc dialog_set_property_str
ff3674a4 LiveViewWbApp_handler
ff375998 GUI_SetCFnForTab4
ff3759f0 GUI_GetCFnForTab4
ff3d7798 fsuDecodePartitionTable
ff41dde0 StopPlayProtectGuideApp
ff41e17c StartPlayProtectGuideApp
ff42b700 PlayMovieGuideApp_handler
ff430250 ErrCardForLVApp_handler
ff4c621c GetCFnData
ff4c6424 SetCFnData
ff50cdec bzero32
ff5517b0 lv_path_struct
ff57b014 audio_thresholds
